(kicad_sch
	(version 20231120)
	(generator "eeschema")
	(generator_version "8.0")
	(uuid "6a072d24-b12a-4e0e-91fb-9a2f26f9f227")
	(paper "A4")
	(lib_symbols
		(symbol "Device:L"
			(pin_numbers hide)
			(pin_names
				(offset 1.016) hide)
			(exclude_from_sim no)
			(in_bom yes)
			(on_board yes)
			(property "Reference" "L"
				(at -1.27 0 90)
				(effects
					(font
						(size 1.27 1.27)
					)
				)
			)
			(property "Value" "L"
				(at 1.905 0 90)
				(effects
					(font
						(size 1.27 1.27)
					)
				)
			)
			(property "Footprint" ""
				(at 0 0 0)
				(effects
					(font
						(size 1.27 1.27)
					)
					(hide yes)
				)
			)
			(property "Datasheet" "~"
				(at 0 0 0)
				(effects
					(font
						(size 1.27 1.27)
					)
					(hide yes)
				)
			)
			(property "Description" "Inductor"
				(at 0 0 0)
				(effects
					(font
						(size 1.27 1.27)
					)
					(hide yes)
				)
			)
			(property "ki_keywords" "inductor choke coil reactor magnetic"
				(at 0 0 0)
				(effects
					(font
						(size 1.27 1.27)
					)
					(hide yes)
				)
			)
			(property "ki_fp_filters" "Choke_* *Coil* Inductor_* L_*"
				(at 0 0 0)
				(effects
					(font
						(size 1.27 1.27)
					)
					(hide yes)
				)
			)
			(symbol "L_0_1"
				(arc
					(start 0 -2.54)
					(mid 0.6323 -1.905)
					(end 0 -1.27)
					(stroke
						(width 0)
						(type default)
					)
					(fill
						(type none)
					)
				)
				(arc
					(start 0 -1.27)
					(mid 0.6323 -0.635)
					(end 0 0)
					(stroke
						(width 0)
						(type default)
					)
					(fill
						(type none)
					)
				)
				(arc
					(start 0 0)
					(mid 0.6323 0.635)
					(end 0 1.27)
					(stroke
						(width 0)
						(type default)
					)
					(fill
						(type none)
					)
				)
				(arc
					(start 0 1.27)
					(mid 0.6323 1.905)
					(end 0 2.54)
					(stroke
						(width 0)
						(type default)
					)
					(fill
						(type none)
					)
				)
			)
			(symbol "L_1_1"
				(pin passive line
					(at 0 3.81 270)
					(length 1.27)
					(name "1"
						(effects
							(font
								(size 1.27 1.27)
							)
						)
					)
					(number "1"
						(effects
							(font
								(size 1.27 1.27)
							)
						)
					)
				)
				(pin passive line
					(at 0 -3.81 90)
					(length 1.27)
					(name "2"
						(effects
							(font
								(size 1.27 1.27)
							)
						)
					)
					(number "2"
						(effects
							(font
								(size 1.27 1.27)
							)
						)
					)
				)
			)
		)
		(symbol "Device:R_US"
			(pin_numbers hide)
			(pin_names
				(offset 0)
			)
			(exclude_from_sim no)
			(in_bom yes)
			(on_board yes)
			(property "Reference" "R"
				(at 2.54 0 90)
				(effects
					(font
						(size 1.27 1.27)
					)
				)
			)
			(property "Value" "R_US"
				(at -2.54 0 90)
				(effects
					(font
						(size 1.27 1.27)
					)
				)
			)
			(property "Footprint" ""
				(at 1.016 -0.254 90)
				(effects
					(font
						(size 1.27 1.27)
					)
					(hide yes)
				)
			)
			(property "Datasheet" "~"
				(at 0 0 0)
				(effects
					(font
						(size 1.27 1.27)
					)
					(hide yes)
				)
			)
			(property "Description" "Resistor, US symbol"
				(at 0 0 0)
				(effects
					(font
						(size 1.27 1.27)
					)
					(hide yes)
				)
			)
			(property "ki_keywords" "R res resistor"
				(at 0 0 0)
				(effects
					(font
						(size 1.27 1.27)
					)
					(hide yes)
				)
			)
			(property "ki_fp_filters" "R_*"
				(at 0 0 0)
				(effects
					(font
						(size 1.27 1.27)
					)
					(hide yes)
				)
			)
			(symbol "R_US_0_1"
				(polyline
					(pts
						(xy 0 -2.286) (xy 0 -2.54)
					)
					(stroke
						(width 0)
						(type default)
					)
					(fill
						(type none)
					)
				)
				(polyline
					(pts
						(xy 0 2.286) (xy 0 2.54)
					)
					(stroke
						(width 0)
						(type default)
					)
					(fill
						(type none)
					)
				)
				(polyline
					(pts
						(xy 0 -0.762) (xy 1.016 -1.143) (xy 0 -1.524) (xy -1.016 -1.905) (xy 0 -2.286)
					)
					(stroke
						(width 0)
						(type default)
					)
					(fill
						(type none)
					)
				)
				(polyline
					(pts
						(xy 0 0.762) (xy 1.016 0.381) (xy 0 0) (xy -1.016 -0.381) (xy 0 -0.762)
					)
					(stroke
						(width 0)
						(type default)
					)
					(fill
						(type none)
					)
				)
				(polyline
					(pts
						(xy 0 2.286) (xy 1.016 1.905) (xy 0 1.524) (xy -1.016 1.143) (xy 0 0.762)
					)
					(stroke
						(width 0)
						(type default)
					)
					(fill
						(type none)
					)
				)
			)
			(symbol "R_US_1_1"
				(pin passive line
					(at 0 3.81 270)
					(length 1.27)
					(name "~"
						(effects
							(font
								(size 1.27 1.27)
							)
						)
					)
					(number "1"
						(effects
							(font
								(size 1.27 1.27)
							)
						)
					)
				)
				(pin passive line
					(at 0 -3.81 90)
					(length 1.27)
					(name "~"
						(effects
							(font
								(size 1.27 1.27)
							)
						)
					)
					(number "2"
						(effects
							(font
								(size 1.27 1.27)
							)
						)
					)
				)
			)
		)
		(symbol "Simulation_SPICE:0"
			(power)
			(pin_names
				(offset 0)
			)
			(exclude_from_sim no)
			(in_bom yes)
			(on_board yes)
			(property "Reference" "#GND"
				(at 0 -2.54 0)
				(effects
					(font
						(size 1.27 1.27)
					)
					(hide yes)
				)
			)
			(property "Value" "0"
				(at 0 -1.778 0)
				(effects
					(font
						(size 1.27 1.27)
					)
				)
			)
			(property "Footprint" ""
				(at 0 0 0)
				(effects
					(font
						(size 1.27 1.27)
					)
					(hide yes)
				)
			)
			(property "Datasheet" "~"
				(at 0 0 0)
				(effects
					(font
						(size 1.27 1.27)
					)
					(hide yes)
				)
			)
			(property "Description" "0V reference potential for simulation"
				(at 0 0 0)
				(effects
					(font
						(size 1.27 1.27)
					)
					(hide yes)
				)
			)
			(property "ki_keywords" "simulation"
				(at 0 0 0)
				(effects
					(font
						(size 1.27 1.27)
					)
					(hide yes)
				)
			)
			(symbol "0_0_1"
				(polyline
					(pts
						(xy -1.27 0) (xy 0 -1.27) (xy 1.27 0) (xy -1.27 0)
					)
					(stroke
						(width 0)
						(type default)
					)
					(fill
						(type none)
					)
				)
			)
			(symbol "0_1_1"
				(pin power_in line
					(at 0 0 0)
					(length 0) hide
					(name "0"
						(effects
							(font
								(size 1.016 1.016)
							)
						)
					)
					(number "1"
						(effects
							(font
								(size 1.016 1.016)
							)
						)
					)
				)
			)
		)
		(symbol "Simulation_SPICE:D"
			(pin_numbers hide)
			(pin_names
				(offset 1.016) hide)
			(exclude_from_sim no)
			(in_bom yes)
			(on_board yes)
			(property "Reference" "D"
				(at 0 2.54 0)
				(effects
					(font
						(size 1.27 1.27)
					)
				)
			)
			(property "Value" "D"
				(at 0 -2.54 0)
				(effects
					(font
						(size 1.27 1.27)
					)
				)
			)
			(property "Footprint" ""
				(at 0 0 0)
				(effects
					(font
						(size 1.27 1.27)
					)
					(hide yes)
				)
			)
			(property "Datasheet" "~"
				(at 0 0 0)
				(effects
					(font
						(size 1.27 1.27)
					)
					(hide yes)
				)
			)
			(property "Description" "Diode for simulation or PCB"
				(at 0 0 0)
				(effects
					(font
						(size 1.27 1.27)
					)
					(hide yes)
				)
			)
			(property "Sim.Device" "D"
				(at 0 0 0)
				(effects
					(font
						(size 1.27 1.27)
					)
				)
			)
			(property "Sim.Pins" "1=K 2=A"
				(at 0 0 0)
				(effects
					(font
						(size 1.27 1.27)
					)
				)
			)
			(property "ki_keywords" "simulation"
				(at 0 0 0)
				(effects
					(font
						(size 1.27 1.27)
					)
					(hide yes)
				)
			)
			(property "ki_fp_filters" "TO-???* *_Diode_* *SingleDiode* D_*"
				(at 0 0 0)
				(effects
					(font
						(size 1.27 1.27)
					)
					(hide yes)
				)
			)
			(symbol "D_0_1"
				(polyline
					(pts
						(xy -1.27 1.27) (xy -1.27 -1.27)
					)
					(stroke
						(width 0.254)
						(type default)
					)
					(fill
						(type none)
					)
				)
				(polyline
					(pts
						(xy 1.27 0) (xy -1.27 0)
					)
					(stroke
						(width 0)
						(type default)
					)
					(fill
						(type none)
					)
				)
				(polyline
					(pts
						(xy 1.27 1.27) (xy 1.27 -1.27) (xy -1.27 0) (xy 1.27 1.27)
					)
					(stroke
						(width 0.254)
						(type default)
					)
					(fill
						(type none)
					)
				)
			)
			(symbol "D_1_1"
				(pin passive line
					(at -3.81 0 0)
					(length 2.54)
					(name "K"
						(effects
							(font
								(size 1.27 1.27)
							)
						)
					)
					(number "1"
						(effects
							(font
								(size 1.27 1.27)
							)
						)
					)
				)
				(pin passive line
					(at 3.81 0 180)
					(length 2.54)
					(name "A"
						(effects
							(font
								(size 1.27 1.27)
							)
						)
					)
					(number "2"
						(effects
							(font
								(size 1.27 1.27)
							)
						)
					)
				)
			)
		)
		(symbol "Simulation_SPICE:VDC"
			(pin_numbers hide)
			(pin_names
				(offset 0.0254)
			)
			(exclude_from_sim no)
			(in_bom yes)
			(on_board yes)
			(property "Reference" "V"
				(at 2.54 2.54 0)
				(effects
					(font
						(size 1.27 1.27)
					)
					(justify left)
				)
			)
			(property "Value" "1"
				(at 2.54 0 0)
				(effects
					(font
						(size 1.27 1.27)
					)
					(justify left)
				)
			)
			(property "Footprint" ""
				(at 0 0 0)
				(effects
					(font
						(size 1.27 1.27)
					)
					(hide yes)
				)
			)
			(property "Datasheet" "~"
				(at 0 0 0)
				(effects
					(font
						(size 1.27 1.27)
					)
					(hide yes)
				)
			)
			(property "Description" "Voltage source, DC"
				(at 0 0 0)
				(effects
					(font
						(size 1.27 1.27)
					)
					(hide yes)
				)
			)
			(property "Sim.Pins" "1=+ 2=-"
				(at 0 0 0)
				(effects
					(font
						(size 1.27 1.27)
					)
					(hide yes)
				)
			)
			(property "Sim.Type" "DC"
				(at 0 0 0)
				(effects
					(font
						(size 1.27 1.27)
					)
					(hide yes)
				)
			)
			(property "Sim.Device" "V"
				(at 0 0 0)
				(effects
					(font
						(size 1.27 1.27)
					)
					(justify left)
					(hide yes)
				)
			)
			(property "ki_keywords" "simulation"
				(at 0 0 0)
				(effects
					(font
						(size 1.27 1.27)
					)
					(hide yes)
				)
			)
			(symbol "VDC_0_0"
				(polyline
					(pts
						(xy -1.27 0.254) (xy 1.27 0.254)
					)
					(stroke
						(width 0)
						(type default)
					)
					(fill
						(type none)
					)
				)
				(polyline
					(pts
						(xy -0.762 -0.254) (xy -1.27 -0.254)
					)
					(stroke
						(width 0)
						(type default)
					)
					(fill
						(type none)
					)
				)
				(polyline
					(pts
						(xy 0.254 -0.254) (xy -0.254 -0.254)
					)
					(stroke
						(width 0)
						(type default)
					)
					(fill
						(type none)
					)
				)
				(polyline
					(pts
						(xy 1.27 -0.254) (xy 0.762 -0.254)
					)
					(stroke
						(width 0)
						(type default)
					)
					(fill
						(type none)
					)
				)
				(text "+"
					(at 0 1.905 0)
					(effects
						(font
							(size 1.27 1.27)
						)
					)
				)
			)
			(symbol "VDC_0_1"
				(circle
					(center 0 0)
					(radius 2.54)
					(stroke
						(width 0.254)
						(type default)
					)
					(fill
						(type background)
					)
				)
			)
			(symbol "VDC_1_1"
				(pin passive line
					(at 0 5.08 270)
					(length 2.54)
					(name "~"
						(effects
							(font
								(size 1.27 1.27)
							)
						)
					)
					(number "1"
						(effects
							(font
								(size 1.27 1.27)
							)
						)
					)
				)
				(pin passive line
					(at 0 -5.08 90)
					(length 2.54)
					(name "~"
						(effects
							(font
								(size 1.27 1.27)
							)
						)
					)
					(number "2"
						(effects
							(font
								(size 1.27 1.27)
							)
						)
					)
				)
			)
		)
		(symbol "Simulation_SPICE:VSIN"
			(pin_numbers hide)
			(pin_names
				(offset 0.0254)
			)
			(exclude_from_sim no)
			(in_bom yes)
			(on_board yes)
			(property "Reference" "V"
				(at 2.54 2.54 0)
				(effects
					(font
						(size 1.27 1.27)
					)
					(justify left)
				)
			)
			(property "Value" "VSIN"
				(at 2.54 0 0)
				(effects
					(font
						(size 1.27 1.27)
					)
					(justify left)
				)
			)
			(property "Footprint" ""
				(at 0 0 0)
				(effects
					(font
						(size 1.27 1.27)
					)
					(hide yes)
				)
			)
			(property "Datasheet" "~"
				(at 0 0 0)
				(effects
					(font
						(size 1.27 1.27)
					)
					(hide yes)
				)
			)
			(property "Description" "Voltage source, sinusoidal"
				(at 0 0 0)
				(effects
					(font
						(size 1.27 1.27)
					)
					(hide yes)
				)
			)
			(property "Sim.Pins" "1=+ 2=-"
				(at 0 0 0)
				(effects
					(font
						(size 1.27 1.27)
					)
					(hide yes)
				)
			)
			(property "Sim.Params" "dc=0 ampl=1 f=1k ac=1"
				(at 2.54 -2.54 0)
				(effects
					(font
						(size 1.27 1.27)
					)
					(justify left)
				)
			)
			(property "Sim.Type" "SIN"
				(at 0 0 0)
				(effects
					(font
						(size 1.27 1.27)
					)
					(hide yes)
				)
			)
			(property "Sim.Device" "V"
				(at 0 0 0)
				(effects
					(font
						(size 1.27 1.27)
					)
					(justify left)
					(hide yes)
				)
			)
			(property "ki_keywords" "simulation ac vac"
				(at 0 0 0)
				(effects
					(font
						(size 1.27 1.27)
					)
					(hide yes)
				)
			)
			(symbol "VSIN_0_0"
				(arc
					(start 0 0)
					(mid -0.635 0.6323)
					(end -1.27 0)
					(stroke
						(width 0)
						(type default)
					)
					(fill
						(type none)
					)
				)
				(arc
					(start 0 0)
					(mid 0.635 -0.6323)
					(end 1.27 0)
					(stroke
						(width 0)
						(type default)
					)
					(fill
						(type none)
					)
				)
				(text "+"
					(at 0 1.905 0)
					(effects
						(font
							(size 1.27 1.27)
						)
					)
				)
			)
			(symbol "VSIN_0_1"
				(circle
					(center 0 0)
					(radius 2.54)
					(stroke
						(width 0.254)
						(type default)
					)
					(fill
						(type background)
					)
				)
			)
			(symbol "VSIN_1_1"
				(pin passive line
					(at 0 5.08 270)
					(length 2.54)
					(name "~"
						(effects
							(font
								(size 1.27 1.27)
							)
						)
					)
					(number "1"
						(effects
							(font
								(size 1.27 1.27)
							)
						)
					)
				)
				(pin passive line
					(at 0 -5.08 90)
					(length 2.54)
					(name "~"
						(effects
							(font
								(size 1.27 1.27)
							)
						)
					)
					(number "2"
						(effects
							(font
								(size 1.27 1.27)
							)
						)
					)
				)
			)
		)
	)
	(junction
		(at 83.82 72.39)
		(diameter 0)
		(color 0 0 0 0)
		(uuid "29740642-eaf5-4731-adcb-204280666029")
	)
	(junction
		(at 99.06 87.63)
		(diameter 0)
		(color 0 0 0 0)
		(uuid "83596eb4-c408-408e-9c0c-a3d49e6b991d")
	)
	(junction
		(at 99.06 64.77)
		(diameter 0)
		(color 0 0 0 0)
		(uuid "8536b524-20df-459b-8900-4d05848d4222")
	)
	(junction
		(at 83.82 55.88)
		(diameter 0)
		(color 0 0 0 0)
		(uuid "89399d54-1a54-45f7-845a-ec647420e2fa")
	)
	(junction
		(at 57.15 72.39)
		(diameter 0)
		(color 0 0 0 0)
		(uuid "936f414f-ce4d-4909-a066-03305f138809")
	)
	(junction
		(at 83.82 87.63)
		(diameter 0)
		(color 0 0 0 0)
		(uuid "b08f7235-c856-4437-a666-3244e7ac6822")
	)
	(wire
		(pts
			(xy 83.82 72.39) (xy 83.82 74.93)
		)
		(stroke
			(width 0)
			(type default)
		)
		(uuid "164f5de3-7207-4ff3-b620-628b2cdfeadc")
	)
	(wire
		(pts
			(xy 83.82 55.88) (xy 83.82 60.96)
		)
		(stroke
			(width 0)
			(type default)
		)
		(uuid "2796cfb1-b885-411a-82f6-283cd109669f")
	)
	(wire
		(pts
			(xy 57.15 87.63) (xy 83.82 87.63)
		)
		(stroke
			(width 0)
			(type default)
		)
		(uuid "3c175f05-2118-4d7d-8a95-cff5c839d325")
	)
	(wire
		(pts
			(xy 99.06 64.77) (xy 99.06 65.405)
		)
		(stroke
			(width 0)
			(type default)
		)
		(uuid "4177f1eb-950d-479b-a703-1a98638ebdfc")
	)
	(wire
		(pts
			(xy 76.2 72.39) (xy 83.82 72.39)
		)
		(stroke
			(width 0)
			(type default)
		)
		(uuid "4f034523-5e2d-40a7-bf67-91c2fb73ea16")
	)
	(wire
		(pts
			(xy 83.82 87.63) (xy 99.06 87.63)
		)
		(stroke
			(width 0)
			(type default)
		)
		(uuid "5f826710-80aa-4f47-984e-9799ae4aaeee")
	)
	(wire
		(pts
			(xy 99.06 55.88) (xy 99.06 57.15)
		)
		(stroke
			(width 0)
			(type default)
		)
		(uuid "611d3305-80b1-437c-b49a-16ed92a63f1b")
	)
	(wire
		(pts
			(xy 83.82 55.88) (xy 99.06 55.88)
		)
		(stroke
			(width 0)
			(type default)
		)
		(uuid "8a6b5b84-5c2b-4890-b9fc-59db756da205")
	)
	(wire
		(pts
			(xy 57.15 55.88) (xy 57.15 60.96)
		)
		(stroke
			(width 0)
			(type default)
		)
		(uuid "8bea2073-3183-405c-b20d-c15833b51bd3")
	)
	(wire
		(pts
			(xy 83.82 82.55) (xy 83.82 87.63)
		)
		(stroke
			(width 0)
			(type default)
		)
		(uuid "a239b40f-c542-4781-8f53-21fa993d3655")
	)
	(wire
		(pts
			(xy 57.15 83.82) (xy 57.15 87.63)
		)
		(stroke
			(width 0)
			(type default)
		)
		(uuid "a72576d4-bc31-4d18-9718-b41d4e273b64")
	)
	(wire
		(pts
			(xy 99.06 73.025) (xy 99.06 73.66)
		)
		(stroke
			(width 0)
			(type default)
		)
		(uuid "b1347ef9-0dfa-4947-a1fe-6a2ab5116acf")
	)
	(wire
		(pts
			(xy 57.15 55.88) (xy 83.82 55.88)
		)
		(stroke
			(width 0)
			(type default)
		)
		(uuid "bbf47ba4-bae7-4f71-9e31-46f942e827bb")
	)
	(wire
		(pts
			(xy 83.82 68.58) (xy 83.82 72.39)
		)
		(stroke
			(width 0)
			(type default)
		)
		(uuid "c63f4981-4e67-4a95-9bd2-00ac74819174")
	)
	(wire
		(pts
			(xy 57.15 72.39) (xy 57.15 76.2)
		)
		(stroke
			(width 0)
			(type default)
		)
		(uuid "d0255c4f-6e89-4ef3-9ee2-f44f8f1c78ed")
	)
	(wire
		(pts
			(xy 99.06 87.63) (xy 99.06 90.805)
		)
		(stroke
			(width 0)
			(type default)
		)
		(uuid "d2eb3c57-b8e4-4bb6-a64d-fca81f0589eb")
	)
	(wire
		(pts
			(xy 57.15 72.39) (xy 66.04 72.39)
		)
		(stroke
			(width 0)
			(type default)
		)
		(uuid "de3b1447-40f6-41b7-96e8-d109a68aa8df")
	)
	(wire
		(pts
			(xy 99.06 83.82) (xy 99.06 87.63)
		)
		(stroke
			(width 0)
			(type default)
		)
		(uuid "e32c33c2-d5b2-4033-ac8a-53a983922d3a")
	)
	(wire
		(pts
			(xy 104.14 64.77) (xy 99.06 64.77)
		)
		(stroke
			(width 0)
			(type default)
		)
		(uuid "e7ff337a-3cad-4eed-91cf-3b39e76751b3")
	)
	(wire
		(pts
			(xy 57.15 68.58) (xy 57.15 72.39)
		)
		(stroke
			(width 0)
			(type default)
		)
		(uuid "fe6adced-23df-4dfa-9d00-0a413c203a7a")
	)
	(text ".tran 10u 40m"
		(exclude_from_sim no)
		(at 65.9784 46.9394 0)
		(effects
			(font
				(size 1.27 1.27)
			)
		)
		(uuid "98e0e10d-3dd3-48ce-aeb5-468ba25bf159")
	)
	(text ".options gmin=1e-10\n.options abstol=1e-10\n.options reltol=0.005\n.options cshunt=1e-13"
		(exclude_from_sim no)
		(at 58.674 39.878 0)
		(effects
			(font
				(size 1.27 1.27)
			)
			(justify left)
		)
		(uuid "9e06c1ca-2e46-4eb8-8950-ca2ad61c9334")
	)
	(label "load"
		(at 99.06 55.88 180)
		(fields_autoplaced yes)
		(effects
			(font
				(size 1.27 1.27)
			)
			(justify right bottom)
		)
		(uuid "19363120-c22f-4f5c-83ae-46bb6a43db4f")
	)
	(label "Vl"
		(at 104.14 64.77 180)
		(fields_autoplaced yes)
		(effects
			(font
				(size 1.27 1.27)
			)
			(justify right bottom)
		)
		(uuid "24dce85e-10d8-4355-a08f-8c88c6214d3e")
	)
	(label "source"
		(at 59.69 72.39 0)
		(fields_autoplaced yes)
		(effects
			(font
				(size 1.27 1.27)
			)
			(justify left bottom)
		)
		(uuid "47d76910-b764-4922-b352-98d224e5a350")
	)
	(symbol
		(lib_id "Simulation_SPICE:VSIN")
		(at 71.12 72.39 90)
		(mirror x)
		(unit 1)
		(exclude_from_sim no)
		(in_bom yes)
		(on_board yes)
		(dnp no)
		(uuid "0065d00d-93c4-4aba-b58e-36d50fa15bea")
		(property "Reference" "V1"
			(at 74.295 67.945 90)
			(effects
				(font
					(size 1.27 1.27)
				)
				(justify left)
			)
		)
		(property "Value" "VSIN"
			(at 74.295 65.405 90)
			(effects
				(font
					(size 1.27 1.27)
				)
				(justify left)
			)
		)
		(property "Footprint" ""
			(at 71.12 72.39 0)
			(effects
				(font
					(size 1.27 1.27)
				)
				(hide yes)
			)
		)
		(property "Datasheet" "~"
			(at 71.12 72.39 0)
			(effects
				(font
					(size 1.27 1.27)
				)
				(hide yes)
			)
		)
		(property "Description" ""
			(at 71.12 72.39 0)
			(effects
				(font
					(size 1.27 1.27)
				)
				(hide yes)
			)
		)
		(property "Sim.Pins" "1=+ 2=-"
			(at 71.12 72.39 0)
			(effects
				(font
					(size 1.27 1.27)
				)
				(hide yes)
			)
		)
		(property "Sim.Params" "dc=0 ampl=311 f=50"
			(at 80.645 81.915 90)
			(effects
				(font
					(size 1.27 1.27)
				)
				(justify left)
			)
		)
		(property "Sim.Type" "SIN"
			(at 71.12 72.39 0)
			(effects
				(font
					(size 1.27 1.27)
				)
				(hide yes)
			)
		)
		(property "Sim.Device" "V"
			(at 71.12 72.39 0)
			(effects
				(font
					(size 1.27 1.27)
				)
				(justify left)
				(hide yes)
			)
		)
		(pin "1"
			(uuid "000ca3a1-84d1-47ba-aca1-dd6737702161")
		)
		(pin "2"
			(uuid "ac10e237-77f2-41b3-979e-f18aa198cc28")
		)
		(instances
			(project "full-rect"
				(path "/6a072d24-b12a-4e0e-91fb-9a2f26f9f227"
					(reference "V1")
					(unit 1)
				)
			)
		)
	)
	(symbol
		(lib_id "Simulation_SPICE:0")
		(at 99.06 90.805 0)
		(unit 1)
		(exclude_from_sim no)
		(in_bom yes)
		(on_board yes)
		(dnp no)
		(uuid "07caf728-1715-400d-be20-1cff6cc2baf3")
		(property "Reference" "#GND01"
			(at 99.06 93.345 0)
			(effects
				(font
					(size 1.27 1.27)
				)
				(hide yes)
			)
		)
		(property "Value" "0"
			(at 99.06 94.615 0)
			(effects
				(font
					(size 1.27 1.27)
				)
			)
		)
		(property "Footprint" ""
			(at 99.06 90.805 0)
			(effects
				(font
					(size 1.27 1.27)
				)
				(hide yes)
			)
		)
		(property "Datasheet" "~"
			(at 99.06 90.805 0)
			(effects
				(font
					(size 1.27 1.27)
				)
				(hide yes)
			)
		)
		(property "Description" ""
			(at 99.06 90.805 0)
			(effects
				(font
					(size 1.27 1.27)
				)
				(hide yes)
			)
		)
		(pin "1"
			(uuid "41537776-d448-438a-9226-fa9f980d1090")
		)
		(instances
			(project "full-rect"
				(path "/6a072d24-b12a-4e0e-91fb-9a2f26f9f227"
					(reference "#GND01")
					(unit 1)
				)
			)
		)
	)
	(symbol
		(lib_id "Simulation_SPICE:D")
		(at 83.82 78.74 270)
		(unit 1)
		(exclude_from_sim no)
		(in_bom yes)
		(on_board yes)
		(dnp no)
		(uuid "20ebab42-93a7-461f-ab26-54524674487e")
		(property "Reference" "D4"
			(at 86.36 78.74 90)
			(effects
				(font
					(size 1.27 1.27)
				)
				(justify left)
			)
		)
		(property "Value" "D"
			(at 86.995 77.47 90)
			(effects
				(font
					(size 1.27 1.27)
				)
				(justify left)
				(hide yes)
			)
		)
		(property "Footprint" ""
			(at 83.82 78.74 0)
			(effects
				(font
					(size 1.27 1.27)
				)
				(hide yes)
			)
		)
		(property "Datasheet" "~"
			(at 83.82 78.74 0)
			(effects
				(font
					(size 1.27 1.27)
				)
				(hide yes)
			)
		)
		(property "Description" ""
			(at 83.82 78.74 0)
			(effects
				(font
					(size 1.27 1.27)
				)
				(hide yes)
			)
		)
		(property "Sim.Device" "D"
			(at 83.82 78.74 0)
			(effects
				(font
					(size 1.27 1.27)
				)
				(hide yes)
			)
		)
		(property "Sim.Pins" "1=K 2=A"
			(at 83.82 78.74 0)
			(effects
				(font
					(size 1.27 1.27)
				)
				(hide yes)
			)
		)
		(pin "1"
			(uuid "ccc1849c-50d1-4207-9080-18bdb03e8715")
		)
		(pin "2"
			(uuid "bb6ad530-efd9-4242-83e1-19cb65cef71f")
		)
		(instances
			(project "full-rect"
				(path "/6a072d24-b12a-4e0e-91fb-9a2f26f9f227"
					(reference "D4")
					(unit 1)
				)
			)
		)
	)
	(symbol
		(lib_id "Device:R_US")
		(at 99.06 60.96 0)
		(unit 1)
		(exclude_from_sim no)
		(in_bom yes)
		(on_board yes)
		(dnp no)
		(fields_autoplaced yes)
		(uuid "28b217c8-09cd-4d93-a5ca-32ac3af36959")
		(property "Reference" "R1"
			(at 101.6 59.6899 0)
			(effects
				(font
					(size 1.27 1.27)
				)
				(justify left)
			)
		)
		(property "Value" "200"
			(at 101.6 62.2299 0)
			(effects
				(font
					(size 1.27 1.27)
				)
				(justify left)
			)
		)
		(property "Footprint" ""
			(at 100.076 61.214 90)
			(effects
				(font
					(size 1.27 1.27)
				)
				(hide yes)
			)
		)
		(property "Datasheet" "~"
			(at 99.06 60.96 0)
			(effects
				(font
					(size 1.27 1.27)
				)
				(hide yes)
			)
		)
		(property "Description" ""
			(at 99.06 60.96 0)
			(effects
				(font
					(size 1.27 1.27)
				)
				(hide yes)
			)
		)
		(property "Sim.Device" "R"
			(at -20.32 123.825 0)
			(effects
				(font
					(size 1.27 1.27)
				)
				(hide yes)
			)
		)
		(property "Sim.Pins" "1=+ 2=-"
			(at -20.32 123.825 0)
			(effects
				(font
					(size 1.27 1.27)
				)
				(hide yes)
			)
		)
		(pin "1"
			(uuid "312b59ff-bc34-4552-a0c1-2b443ea1fcc3")
		)
		(pin "2"
			(uuid "5e7037eb-1fe4-4f84-89fc-2562d25be2dc")
		)
		(instances
			(project "full-rect"
				(path "/6a072d24-b12a-4e0e-91fb-9a2f26f9f227"
					(reference "R1")
					(unit 1)
				)
			)
		)
	)
	(symbol
		(lib_id "Simulation_SPICE:D")
		(at 83.82 64.77 270)
		(unit 1)
		(exclude_from_sim no)
		(in_bom yes)
		(on_board yes)
		(dnp no)
		(uuid "65ae5f64-857b-4adc-9262-6522f1b943ce")
		(property "Reference" "D2"
			(at 86.36 64.77 90)
			(effects
				(font
					(size 1.27 1.27)
				)
				(justify left)
			)
		)
		(property "Value" "D"
			(at 86.995 63.5 90)
			(effects
				(font
					(size 1.27 1.27)
				)
				(justify left)
				(hide yes)
			)
		)
		(property "Footprint" ""
			(at 83.82 64.77 0)
			(effects
				(font
					(size 1.27 1.27)
				)
				(hide yes)
			)
		)
		(property "Datasheet" "~"
			(at 83.82 64.77 0)
			(effects
				(font
					(size 1.27 1.27)
				)
				(hide yes)
			)
		)
		(property "Description" ""
			(at 83.82 64.77 0)
			(effects
				(font
					(size 1.27 1.27)
				)
				(hide yes)
			)
		)
		(property "Sim.Device" "D"
			(at 83.82 64.77 0)
			(effects
				(font
					(size 1.27 1.27)
				)
				(hide yes)
			)
		)
		(property "Sim.Pins" "1=K 2=A"
			(at 83.82 64.77 0)
			(effects
				(font
					(size 1.27 1.27)
				)
				(hide yes)
			)
		)
		(pin "1"
			(uuid "e284e1b3-caff-40cb-8a9d-1f4e60dc8a53")
		)
		(pin "2"
			(uuid "af6895df-0ebc-4ca8-bc1c-e6d59ca2ae36")
		)
		(instances
			(project "full-rect"
				(path "/6a072d24-b12a-4e0e-91fb-9a2f26f9f227"
					(reference "D2")
					(unit 1)
				)
			)
		)
	)
	(symbol
		(lib_id "Simulation_SPICE:D")
		(at 57.15 64.77 270)
		(unit 1)
		(exclude_from_sim no)
		(in_bom yes)
		(on_board yes)
		(dnp no)
		(uuid "944f2ddb-e2c0-458c-bf93-5281e3b15e4e")
		(property "Reference" "D1"
			(at 59.69 64.77 90)
			(effects
				(font
					(size 1.27 1.27)
				)
				(justify left)
			)
		)
		(property "Value" "D"
			(at 60.325 63.5 90)
			(effects
				(font
					(size 1.27 1.27)
				)
				(justify left)
				(hide yes)
			)
		)
		(property "Footprint" ""
			(at 57.15 64.77 0)
			(effects
				(font
					(size 1.27 1.27)
				)
				(hide yes)
			)
		)
		(property "Datasheet" "~"
			(at 57.15 64.77 0)
			(effects
				(font
					(size 1.27 1.27)
				)
				(hide yes)
			)
		)
		(property "Description" ""
			(at 57.15 64.77 0)
			(effects
				(font
					(size 1.27 1.27)
				)
				(hide yes)
			)
		)
		(property "Sim.Device" "D"
			(at 57.15 64.77 0)
			(effects
				(font
					(size 1.27 1.27)
				)
				(hide yes)
			)
		)
		(property "Sim.Pins" "1=K 2=A"
			(at 57.15 64.77 0)
			(effects
				(font
					(size 1.27 1.27)
				)
				(hide yes)
			)
		)
		(pin "1"
			(uuid "9ea5f048-b0da-4f00-acbd-c566dab62172")
		)
		(pin "2"
			(uuid "ce0a977c-3596-4184-8198-53c59c410199")
		)
		(instances
			(project "full-rect"
				(path "/6a072d24-b12a-4e0e-91fb-9a2f26f9f227"
					(reference "D1")
					(unit 1)
				)
			)
		)
	)
	(symbol
		(lib_id "Device:L")
		(at 99.06 69.215 0)
		(unit 1)
		(exclude_from_sim no)
		(in_bom yes)
		(on_board yes)
		(dnp no)
		(fields_autoplaced yes)
		(uuid "9a7d717a-86fc-410d-9871-d729b618d702")
		(property "Reference" "L1"
			(at 100.33 67.9449 0)
			(effects
				(font
					(size 1.27 1.27)
				)
				(justify left)
			)
		)
		(property "Value" "10m"
			(at 100.33 70.4849 0)
			(effects
				(font
					(size 1.27 1.27)
				)
				(justify left)
			)
		)
		(property "Footprint" ""
			(at 99.06 69.215 0)
			(effects
				(font
					(size 1.27 1.27)
				)
				(hide yes)
			)
		)
		(property "Datasheet" "~"
			(at 99.06 69.215 0)
			(effects
				(font
					(size 1.27 1.27)
				)
				(hide yes)
			)
		)
		(property "Description" ""
			(at 99.06 69.215 0)
			(effects
				(font
					(size 1.27 1.27)
				)
				(hide yes)
			)
		)
		(property "Sim.Device" "L"
			(at -44.45 154.305 0)
			(effects
				(font
					(size 1.27 1.27)
				)
				(hide yes)
			)
		)
		(property "Sim.Pins" "1=+ 2=-"
			(at -44.45 154.305 0)
			(effects
				(font
					(size 1.27 1.27)
				)
				(hide yes)
			)
		)
		(pin "1"
			(uuid "8f339b0d-b7d9-4e4d-b34b-49c3eb4bcf9c")
		)
		(pin "2"
			(uuid "ced6b87b-7e9f-47f0-89b8-d045be36946b")
		)
		(instances
			(project "full-rect"
				(path "/6a072d24-b12a-4e0e-91fb-9a2f26f9f227"
					(reference "L1")
					(unit 1)
				)
			)
		)
	)
	(symbol
		(lib_id "Simulation_SPICE:D")
		(at 57.15 80.01 270)
		(unit 1)
		(exclude_from_sim no)
		(in_bom yes)
		(on_board yes)
		(dnp no)
		(uuid "be4864d5-cb78-4ba7-8f4f-f921bfb451ef")
		(property "Reference" "D3"
			(at 59.69 80.01 90)
			(effects
				(font
					(size 1.27 1.27)
				)
				(justify left)
			)
		)
		(property "Value" "D"
			(at 60.325 78.74 90)
			(effects
				(font
					(size 1.27 1.27)
				)
				(justify left)
				(hide yes)
			)
		)
		(property "Footprint" ""
			(at 57.15 80.01 0)
			(effects
				(font
					(size 1.27 1.27)
				)
				(hide yes)
			)
		)
		(property "Datasheet" "~"
			(at 57.15 80.01 0)
			(effects
				(font
					(size 1.27 1.27)
				)
				(hide yes)
			)
		)
		(property "Description" ""
			(at 57.15 80.01 0)
			(effects
				(font
					(size 1.27 1.27)
				)
				(hide yes)
			)
		)
		(property "Sim.Device" "D"
			(at 57.15 80.01 0)
			(effects
				(font
					(size 1.27 1.27)
				)
				(hide yes)
			)
		)
		(property "Sim.Pins" "1=K 2=A"
			(at 57.15 80.01 0)
			(effects
				(font
					(size 1.27 1.27)
				)
				(hide yes)
			)
		)
		(pin "1"
			(uuid "2b2f1c92-18d2-459e-b55e-4cec6d0a334a")
		)
		(pin "2"
			(uuid "e38d87fa-0888-4d4f-ad28-527c6b40ef4e")
		)
		(instances
			(project "full-rect"
				(path "/6a072d24-b12a-4e0e-91fb-9a2f26f9f227"
					(reference "D3")
					(unit 1)
				)
			)
		)
	)
	(symbol
		(lib_id "Simulation_SPICE:VDC")
		(at 99.06 78.74 0)
		(unit 1)
		(exclude_from_sim no)
		(in_bom yes)
		(on_board yes)
		(dnp no)
		(fields_autoplaced yes)
		(uuid "f534e069-321b-4994-a318-ce6f4b7759c9")
		(property "Reference" "V2"
			(at 102.87 77.3402 0)
			(effects
				(font
					(size 1.27 1.27)
				)
				(justify left)
			)
		)
		(property "Value" "30"
			(at 102.87 79.8802 0)
			(effects
				(font
					(size 1.27 1.27)
				)
				(justify left)
			)
		)
		(property "Footprint" ""
			(at 99.06 78.74 0)
			(effects
				(font
					(size 1.27 1.27)
				)
				(hide yes)
			)
		)
		(property "Datasheet" "~"
			(at 99.06 78.74 0)
			(effects
				(font
					(size 1.27 1.27)
				)
				(hide yes)
			)
		)
		(property "Description" ""
			(at 99.06 78.74 0)
			(effects
				(font
					(size 1.27 1.27)
				)
				(hide yes)
			)
		)
		(property "Sim.Pins" "1=+ 2=-"
			(at 99.06 78.74 0)
			(effects
				(font
					(size 1.27 1.27)
				)
				(hide yes)
			)
		)
		(property "Sim.Type" "DC"
			(at 99.06 78.74 0)
			(effects
				(font
					(size 1.27 1.27)
				)
				(hide yes)
			)
		)
		(property "Sim.Device" "V"
			(at 99.06 78.74 0)
			(effects
				(font
					(size 1.27 1.27)
				)
				(justify left)
				(hide yes)
			)
		)
		(pin "2"
			(uuid "437ad42b-15a8-416d-aa21-69fac6c08bfd")
		)
		(pin "1"
			(uuid "ed5cebc8-8060-4f5b-8795-b19e5c3c7827")
		)
		(instances
			(project "full-rect"
				(path "/6a072d24-b12a-4e0e-91fb-9a2f26f9f227"
					(reference "V2")
					(unit 1)
				)
			)
		)
	)
	(sheet_instances
		(path "/"
			(page "1")
		)
	)
)